<?xml version="1.0" encoding="UTF-8"?>
<model ref="r:f5e4170d-5068-4769-90ec-b85d406b7706(ProducerWizard.dataFlow)">
  <persistence version="9" />
  <languages>
    <use id="7fa12e9c-b949-4976-b4fa-19accbc320b4" name="jetbrains.mps.lang.dataFlow" version="1" />
    <devkit ref="00000000-0000-4000-0000-443879f56b80(jetbrains.mps.devkit.aspect.dataflow)" />
  </languages>
  <imports />
  <registry />
</model>

