[
  {
    "name": "Actors popularity",
    "id": 0,
    "data": {
      "labels": [
        "War Machine",
        "Alliés",
        "Voyage of Time: The IMAX Experience",
        "The Big Short : Le casse du siècle",
        "Vue sur mer",
        "The Audition",
        "Hitting the Apex",
        "Fury",
        "Truth of the Situation: Making 'The Counselor'",
        "Cartel"
      ],
      "datasets": [
        {
          "data": [
            10.907631,
            12.643775,
            1.226939,
            25.642415,
            7.114457,
            2.551,
            3.260691,
            59.920908,
            0.937863,
            8.715195
          ]
        }
      ]
    }
  }
]
